mp01 – STA 9750 2024 Submission Material
…
filter(year(month) == "2022") |>
  group_by(
    `NTD ID`,
    Agency,
    metro_area,
    Mode) |>
  summarise(
    Total_VRM = sum(VRM, na.rm = TRUE),
    Total_UPT = sum(UPT, na.rm = TRUE),
    .groups = 'drop'
  ) |>
  ungroup()
print(usage_2022_annual)

# A tibble: 1,141 × 6
   `NTD ID` Agency                          metro_area Mode  Total_VRM Total_UPT
      <int> <chr>                           <chr>      <chr>     <dbl>     <dbl>
 1        1 King County                     Seattle--… Bus    61632644  53983641
 2        1 King County                     Seattle--… Dema…  12860448    663009
 3        1 King County                     Seattle--… Ferr…     51236    400407
 4        1 King County                     Seattle--… Stre…    180369   1117605
 5        1 King County                     Seattle--… Trol…   2635705   9575043
 6        1 King County                     Seattle--… Vanp…   4413910    702709
 7        2 Spokane Transit Authority       Spokane, … Bus     6485325   6595319
 8        2 Spokane Transit Authority       Spokane, … Dema…   4037502    310316
 9        2 Spokane Transit Authority       Spokane, … Vanp…    905990     90576
10        3 Pierce County Transportation B… Seattle--… Bus     4227441   4950296
# ℹ 1,131 more rows

Recall the FINANCIALS table we created in the beginning I am also renaming the modes for financials so it shows in the table.

print(FINANCIALS)

# A tibble: 1,173 × 5
   `NTD ID` `Agency Name`                           Mode  `Total Fares` Expenses
      <dbl> <chr>                                   <chr>         <dbl>    <dbl>
 1        1 King County Department of Metro Transit CB          5216912   0     
 2        1 King County Department of Metro Transit DR           832327   6.05e7
 3        1 King County Department of Metro Transit FB          1715265   8.90e6
 4        1 King County Department of Metro Transit LR         29386480   0     
 5        1 King County Department of Metro Transit MB         56846337   6.72e8
 6        1 King County Department of Metro Transit SR           588495   1.25e7
 7        1 King County Department of Metro Transit TB         10123486   8.42e7
 8        1 King County Department of Metro Transit VP          5484481   8.91e6
 9        2 Spokane Transit Authority               DR           531284   1.80e7
10        2 Spokane Transit Authority               MB          6135110   7.53e7
# ℹ 1,163 more rows
…
Following this code, the two tables are merged:

USAGE_AND_FINANCIALS <- left_join(usage_2022_annual, 
           FINANCIALS, 
           join_by(`NTD ID`, Mode)) |>
    drop_na()

Let’s show the first 1,000!

sample_n(USAGE_AND_FINANCIALS, 1000) 

# A tibble: 1,000 × 9
   `NTD ID` Agency            metro_area Mode  Total_VRM Total_UPT `Agency Name`
      <dbl> <chr>             <chr>      <chr>     <dbl>     <dbl> <chr>        
 1    90196 County of Placer  Sacrament… Comm…      3944      1054 County of Pl…
 2       44 Skagit Transit    Mount Ver… Dema…    374842     53400 Skagit Trans…
 3    40035 Central Florida … Orlando, … Dema…   7557232    585706 Central Flor…
 4    40108 Research Triangl… Durham, NC Dema…    416124     35595 Research Tri…
 5    20075 Port Authority T… Philadelp… Heav…   4868978   4870310 Port Authori…
 6    50035 Central County T… Kalamazoo… Dema…    877697    114323 Central Coun…
 7    90234 Marin County Tra… San Franc… Dema…    421668     49975 Marin County…
 8    50166 Clermont County,… Cincinnat… Bus      119799     11964 Board of  Cl…
 9    30202 South Central Tr… Lancaster… Dema…   4415050    313723 South Centra…
10    50045 Gary Public Tran… Chicago, … Bus      788671    371256 Gary Public …
# ℹ 990 more rows
# ℹ 2 more variables: `Total Fares` <dbl>, Expenses <dbl>
…
