Mp02 – STA 9750 2024 Submission Material
…
# Step 6: Join the success count with the total production count and calculate success rate
genre_success_rate <- genre_success_count %>%
  inner_join(total_movies_per_genre, by = "genres") %>%
  mutate(success_rate = success_count / total_count) %>%
  arrange(desc(success_rate))

# Step 7: Print the genre with the most successes and the success rate
print(genre_success_rate)

# A tibble: 28 × 4
   genres    success_count total_count success_rate
   <chr>             <int>       <int>        <dbl>
 1 Adventure         11195       27772        0.403
 2 Action            15390       38840        0.396
 3 Biography          2330        6038        0.386
 4 Crime             12375       33485        0.370
 5 Fantasy            3892       10828        0.359
 6 Animation          8774       25155        0.349
 7 Mystery            6559       19118        0.343
 8 Western             223         650        0.343
 9 Drama             32460       95970        0.338
10 Sci-Fi             2359        7350        0.321
# ℹ 18 more rows
…
